…
**Insight**: The `yearly_df` is cleaned, with no missing values or
duplicates. The average annual births and deaths are 3153 and 223,
respectively.

## Monthly dataframe

``` r
monthly_df
```

    ## # A tibble: 98 × 3
    ##    date       births deaths
    ##    <date>      <dbl>  <dbl>
    ##  1 1841-01-01    254     37
    ##  2 1841-02-01    239     18
    ##  3 1841-03-01    277     12
    ##  4 1841-04-01    255      4
    ##  5 1841-05-01    255      2
    ##  6 1841-06-01    200     10
    ##  7 1841-07-01    190     16
    ##  8 1841-08-01    222      3
    ##  9 1841-09-01    213      4
    ## 10 1841-10-01    236     26
    ## # ℹ 88 more rows
…
``` r
handwashing_start <- as.Date("1847-06-01", format = "%Y-%m-%d")
```

Adding a column called “pct_deaths” to `monthly_df` that has the
percentage of deaths per birth for each row.

``` r
monthly_df <- monthly_df %>% 
  mutate(pct_deaths = round(deaths/births, 2))
monthly_df
```

    ## # A tibble: 98 × 4
    ##    date       births deaths pct_deaths
    ##    <date>      <dbl>  <dbl>      <dbl>
    ##  1 1841-01-01    254     37       0.15
    ##  2 1841-02-01    239     18       0.08
    ##  3 1841-03-01    277     12       0.04
    ##  4 1841-04-01    255      4       0.02
    ##  5 1841-05-01    255      2       0.01
    ##  6 1841-06-01    200     10       0.05
    ##  7 1841-07-01    190     16       0.08
    ##  8 1841-08-01    222      3       0.01
    ##  9 1841-09-01    213      4       0.02
    ## 10 1841-10-01    236     26       0.11
    ## # ℹ 88 more rows
…
