…
# Investigating the Zero Revenue Films

How many films grossed \$0 domestically (i.e., in the United States)?
What were the highest budget films that grossed nothing?

``` r
zero_domestic <- df %>% 
  filter(USD_Domestic_Gross == 0)
zero_domestic <- zero_domestic[order(zero_domestic$USD_Production_Budget, decreasing = TRUE),]
zero_domestic
```

    ## # A tibble: 512 × 6
    ##     Rank Release_Date Movie_Title      USD_Production_Budget USD_Worldwide_Gross
    ##    <dbl> <date>       <chr>                            <dbl>               <dbl>
    ##  1    96 2020-12-31   Singularity                  175000000                   0
    ##  2   126 2018-12-18   Aquaman                      160000000                   0
    ##  3   321 2018-09-03   A Wrinkle in Ti…             103000000                   0
    ##  4   366 2018-10-08   Amusement Park               100000000                   0
    ##  5   556 2015-12-31   Don Gato, el in…              80000000             4547660
    ##  6   566 2012-12-31   Astérix et Obél…              77600000            60680125
    ##  7   880 2015-11-12   The Ridiculous 6              60000000                   0
    ##  8   879 2017-04-08   The Dark Tower                60000000                   0
    ##  9  1119 2020-12-31   Hannibal the Co…              50000000                   0
    ## 10  1230 2012-12-31   Foodfight!                    45000000               73706
    ## # ℹ 502 more rows
    ## # ℹ 1 more variable: USD_Domestic_Gross <dbl>

How many films grossed \$0 worldwide? What are the highest budget films
that had no revenue internationally?

``` r
zero_international <- df %>% filter(USD_Worldwide_Gross == 0)
zero_international <- zero_international[order(zero_international$USD_Production_Budget, decreasing = TRUE),]
zero_international
```

    ## # A tibble: 357 × 6
    ##     Rank Release_Date Movie_Title      USD_Production_Budget USD_Worldwide_Gross
    ##    <dbl> <date>       <chr>                            <dbl>               <dbl>
    ##  1    96 2020-12-31   Singularity                  175000000                   0
    ##  2   126 2018-12-18   Aquaman                      160000000                   0
    ##  3   321 2018-09-03   A Wrinkle in Ti…             103000000                   0
    ##  4   366 2018-10-08   Amusement Park               100000000                   0
    ##  5   880 2015-11-12   The Ridiculous 6              60000000                   0
    ##  6   879 2017-04-08   The Dark Tower                60000000                   0
    ##  7  1119 2020-12-31   Hannibal the Co…              50000000                   0
    ##  8  1435 2015-12-31   The Crow                      40000000                   0
    ##  9  1631 2008-12-31   Black Water Tra…              35000000                   0
    ## 10  1656 2015-10-30   Freaks of Nature              33000000                   0
    ## # ℹ 347 more rows
    ## # ℹ 1 more variable: USD_Domestic_Gross <dbl>

**Insight:** we can see that there is 512 films that have 0 gross
domestic revenue and 357 films that have 0 gross global revenue.

How many films were releases exclusively for international audience?

``` r
international_releases <- df %>% filter(USD_Domestic_Gross == 0 & USD_Worldwide_Gross != 0)
international_releases
```

    ## # A tibble: 155 × 6
    ##     Rank Release_Date Movie_Title      USD_Production_Budget USD_Worldwide_Gross
    ##    <dbl> <date>       <chr>                            <dbl>               <dbl>
    ##  1  4310 1956-02-16   Carousel                       3380000                3220
    ##  2  5087 2001-02-11   Everything Put …                500000                7890
    ##  3  3695 2001-12-31   The Hole                       7500000            10834406
    ##  4  4236 2003-12-31   Nothing                        4000000               63180
    ##  5  2513 2004-03-31   The Touch                     20000000             5918742
    ##  6  4623 2004-10-12   Freeze Frame                   2000000              105377
    ##  7  4747 2005-04-11   Wal-Mart: The H…               1500000               58692
    ##  8  2944 2005-12-31   Dungeons & Drag…              15000000              909822
    ##  9  4531 2005-12-31   Chicken Tikka M…               2160000               37865
    ## 10  1629 2006-09-22   Bandidas                      35000000            19282590
    ## # ℹ 145 more rows
    ## # ℹ 1 more variable: USD_Domestic_Gross <dbl>
…
**Insight**: We find that the zero gross revenue data also contains
movies not yet released at the time of data collection, so our next step
is to exclude these rows from our dataframe.

``` r
cleaned_df <- df[df$Release_Date < scrape_date,]
cleaned_df
```

    ## # A tibble: 5,384 × 6
    ##     Rank Release_Date Movie_Title      USD_Production_Budget USD_Worldwide_Gross
    ##    <dbl> <date>       <chr>                            <dbl>               <dbl>
    ##  1  5293 1915-08-02   The Birth of a …                110000            11000000
    ##  2  5140 1916-05-09   Intolerance                     385907                   0
    ##  3  5230 1916-12-24   20,000 Leagues …                200000             8000000
    ##  4  5299 1920-09-17   Over the Hill t…                100000             3000000
    ##  5  5222 1925-01-01   The Big Parade                  245000            22000000
    ##  6  4250 1925-12-30   Ben-Hur                        3900000             9000000
    ##  7  4630 1927-12-08   Wings                          2000000                   0
    ##  8  5141 1929-01-02   The Broadway Me…                379000             4358000
    ##  9  4240 1930-01-01   Hell's Angels                  4000000                   0
    ## 10  5043 1931-12-31   Mata Hari                       558000              900000
    ## # ℹ 5,374 more rows
    ## # ℹ 1 more variable: USD_Domestic_Gross <dbl>
…
